<?xml version="1.0" encoding="UTF-8"?>
<svg width="8px" height="5px" viewBox="0 0 8 5" version="1.1" xmlns="http://www.w3.org/2000/svg" xmlns:xlink="http://www.w3.org/1999/xlink">
    <!-- Generator: Sketch 50.2 (55047) - http://www.bohemiancoding.com/sketch -->
    <title>Mobile</title>
    <desc>Created with Sketch.</desc>
    <defs></defs>
    <g id="Mobile" stroke="none" stroke-width="1" fill="none" fill-rule="evenodd">
        <g id="sub-btn-arrow" fill="#6B6B6B" fill-rule="nonzero">
            <polygon id="Shape" points="7.06666667 0 4 3.10810811 0.933333333 0 0 0.945945946 4 5 8 0.945945946"></polygon>
        </g>
    </g>
</svg>